{
  "type": "service_account",
  "project_id": "merchant-intelligence-webapp",
  "private_key_id": "b2ebd7e0edc4fda608b83a9231f76388f906dfbf",
  "private_key": "-----BEGIN PRIVATE KEY-----\nMIIEvAIBADANBgkqhkiG9w0BAQEFAASCBKYwggSiAgEAAoIBAQCVNDHeS7/NqbMp\n+BemD1vxOkqrS0GNFhe6ZnOJuQCO9iAvJPm/3J0+60gplFaBegEeHko5q/tg15ok\nOyXb1kaHO+FX/GmBrxZU4irclQ8mxZD8lLH6oPAKZDujIzJUu0Yc+d1YP6GrQwp8\neOoYCwy+5w2EID5p/SYEYfBsgqj9lCsebtvMdvG7arIuZIDg+MAZQllelmd6LnXh\n+oGTRUBtobcugl5tCA7Ji/M2bd5J1hjNn1XitflObNXeTW6dguec+wVjRbu61vvU\nzQYsaoErCFEYrx+MpJ52WV03gbOzpSaSr7t1LZuYJPWYHCillmNE4sXxxUQhKtae\nCHCDKLsJAgMBAAECggEAOYx+R520B2GTJ3b3uCdocSzorBVE3WROFql5mv9uhbXN\nSCHc6vHu/NvHY7JBg4NJdxJ70q7RMNM4Mw1VVuvZHEQucL98+nZMCMWLfrVHuM6v\nU50O4Pq+W2O51Py4ZxIswvRlOaqhcutS2hvRPyDT87Yu8m11ZXAs/7e/AjuLbvLm\na6F4GXIW32AschO6of53czruYrwGJ7C9G71w4rFG2yDH6WpocMOweoVxwDR93ZH0\nh5AdQ9tJcySfKT1R0kCwGIPKaIdgcnPG2JJ2/RmmaXEOsUdwJingcXMikjyc+PKb\n/8pCaiqT9pIPw2ifePly2Q4HrNk8zCGKAOfeV+ZO2QKBgQDRA9xVp9HBXJ9BNc34\nObH8g4EzIbqFvFZ45Z4LMbsmz81DsSxSx1Xe1NuOIdILLqGmGD4GRexkALAw6qJO\nRbdD2FymACpkfkinB+KfuAH1FU0ur14dvwkM/tkKEBFWAfXoHFKUkJSjp8VLJ7Xh\nkG9PeWAxQGiuqWp9+w5cvYetvwKBgQC2vmTfWytQEw0wqN0NwBPPAwE9RVI93Pda\n0j73FBVljCvhY9UGKqWjFO93Jrv33jg25qx30YZ3SCAnJp/k+wYCq3FwLNOB6kIz\nYGXGxUJKd/jUPq3HmFEvw76Wd44G6CdivA7THWwfhoB0cfm5M7pfLZhTuhUML/cN\nkWWjPSVZNwKBgDldiOSNablbNW5NWRlupFX8tcIV2L6JwWXvB2BlJstxLxIMF3Ek\nuoGtBBFPYPmms8EFWEiaelW8Bp92VlOLONBLGqqI0xm/uyr0tBNICml8jjFo+jjJ\nzK8fZuwnGsrzQM2SsGuL/u+nxTNqU7Xz0UkLtAXweoqtfsfS1s9HSWy7AoGAVn8P\n59iTS7d4ystithtwRM+7SnEBWF66hbZ2LyTGa+ZI7sn+DokpFWPXZKJk3hHEsdfF\nUoFOEC+HaICTtiJK2gCkFOBizF9BLmg2RDsiAXV/xZZVUt/5rY4NK9My2noQCl/Q\n9IQ8pT9YlcVM2iht0pcWPqsZQ0eAvF9RqE5M20kCgYADSAqMNvWD8gmCTtmgqpYs\nHubP0fZ7+AfcPGzAZy8VtONI2sryFTP6Ew82UVfLYlMVRxzQvOSV5+adnMfEfe9R\n09Us7/6hsBndObwW7171+T016M9eGfTdfQgDa1kIhj9h0LtpINsSGNG7Mzk+uRhS\nzzjVDYpfoP91g9nKnHM74Q==\n-----END PRIVATE KEY-----\n",
  "client_email": "local-880@merchant-intelligence-webapp.iam.gserviceaccount.com",
  "client_id": "108133899156328100712",
  "auth_uri": "https://accounts.google.com/o/oauth2/auth",
  "token_uri": "https://oauth2.googleapis.com/token",
  "auth_provider_x509_cert_url": "https://www.googleapis.com/oauth2/v1/certs",
  "client_x509_cert_url": "https://www.googleapis.com/robot/v1/metadata/x509/local-880%40merchant-intelligence-webapp.iam.gserviceaccount.com"
}
